{
  "name": "Swipe With Window Phone",
  "version": "1.0.0",
  "main": ["./swipe.js"],
  "author": "Tomer Almog",
  "license": "MIT",
  "ignore": [
    "**/*.html",
    "**/*.css",
    "Gruntfile.js"
  ]
}
